<?xml version="1.0" encoding="UTF-8"?>
<svg width="80px" height="82px" viewBox="0 0 80 82" version="1.1" xmlns="http://www.w3.org/2000/svg" xmlns:xlink="http://www.w3.org/1999/xlink">
    <title>innest budge copy 4</title>
    <g id="Welcome" stroke="none" stroke-width="1" fill="none" fill-rule="evenodd">
        <g id="Badge" transform="translate(-979.000000, -497.000000)" fill-rule="nonzero">
            <g id="Widget-1-(1)" transform="translate(352.000000, 320.000000)">
                <g id="030-badge-20" transform="translate(627.000000, 177.000000)">
                    <path d="M79.9613273,39.9806636 C79.9613273,62.061502 62.061502,79.9613273 39.9806636,79.9613273 C17.8998253,79.9613273 0,62.061502 0,39.9806636 C0,17.8998253 17.8998253,0 39.9806636,0 C62.061502,0 79.9613273,17.8998253 79.9613273,39.9806636 Z" id="Path" fill="#F5C02C"></path>
                    <path d="M15.7734531,8.15868263 C18.3021458,6.23253493 21.065993,4.6007984 24.0169661,3.31462068 L39.9806636,12.8917166 L55.9406188,3.31586826 C58.8915919,4.60204583 61.6566866,6.23378236 64.1853793,8.15993006 L39.9806636,22.6827594 L15.7734531,8.15868263 Z" id="Path" fill="#006CBC"></path>
                    <path d="M64.1878742,8.15868263 L39.9806636,22.6827594 L26.8993263,14.8340819 C24.8609032,13.6109032 24.2433883,10.9412425 25.5382984,8.9477295 C26.7695858,7.05214563 29.2801897,6.47143218 31.2188123,7.63473054 L39.9806636,12.8917166 L55.9437375,3.31399697 C58.8940869,4.60017469 61.6591816,6.23253493 64.1878742,8.15868263 L64.1878742,8.15868263 Z" id="Path" fill="#0088CC"></path>
                    <path d="M61.0316867,81.756487 L20.2351547,81.756487 C18.883483,81.756487 17.7875499,80.6605539 17.7875499,79.3088822 L17.7875499,29.7561127 C17.7875499,28.404441 18.883483,27.3085079 20.2351547,27.3085079 L61.0316867,27.3085079 C62.3833582,27.3085079 63.4792913,28.404441 63.4792913,29.7561127 L63.4792913,79.3088822 C63.4792913,80.6605539 62.3833582,81.756487 61.0316867,81.756487 Z" id="Path" fill="#97F0F2"></path>
                    <path d="M61.0316867,81.756487 L25.7834331,81.756487 C24.4317614,81.756487 23.3358283,80.6605539 23.3358283,79.3088822 L23.3358283,29.7561127 C23.3358283,28.404441 24.4317614,27.3085079 25.7834331,27.3085079 L61.0316867,27.3085079 C62.3833582,27.3085079 63.4792913,28.404441 63.4792913,29.7561127 L63.4792913,79.3088822 C63.4792913,80.6605539 62.3833582,81.756487 61.0316867,81.756487 Z" id="Path" fill="#C0FBFF"></path>
                    <path d="M63.4792913,71.9673153 C61.9317614,72.8399451 60.2451347,73.4948853 58.4593313,73.8859781 L57.7201846,77.2105788 C57.3846058,78.7225549 56.0435379,79.7985279 54.4947606,79.7985279 C52.9197854,79.7985279 51.5631237,78.6863773 51.2543663,77.141966 L50.6019211,73.8778692 C48.4830339,73.4100549 46.5026197,72.5742266 44.7324102,71.4396208 L41.8581587,73.2684631 C40.5513972,74.0999251 38.8429391,73.9121756 37.7476297,72.81749 C36.6342315,71.7034681 36.4614521,69.9582085 37.3347056,68.6477046 L39.1816367,65.8776198 C38.0507735,64.1049151 37.2186876,62.1232535 36.7546157,60.0037426 L33.430015,59.2652196 C31.918039,58.929017 30.8420659,57.5879491 30.8420659,56.0391716 C30.8420659,54.4641966 31.9542165,53.1081587 33.4986277,52.7994012 L36.7627245,52.1463323 C37.2305389,50.0280688 38.0657436,48.0476548 39.2009731,46.2768214 L37.3721308,43.4031936 C36.5406687,42.0964321 36.7277943,40.3873503 37.8231039,39.2926646 C38.9371257,38.1786427 40.6823853,38.0058633 41.9928893,38.8797405 L44.7629741,40.7266716 C46.5356787,39.5951847 48.5173404,38.7630988 50.6368513,38.2996506 L51.3753742,34.9744262 C51.7115768,33.4624501 53.0526448,32.3871008 54.6014221,32.3871008 C56.1763973,32.3871008 57.5324351,33.4992514 57.8411927,35.0436628 L58.4942614,38.3071358 C60.2675898,38.6988522 61.9417415,39.3512974 63.4792913,40.2176896 L63.4792913,51.0878244 C61.7259232,47.9653193 58.384481,45.8539171 54.5477795,45.8539171 C48.893463,45.8539171 44.3095059,50.4378743 44.3095059,56.0928144 C44.3095059,61.7477544 48.893463,66.3317116 54.5477795,66.3317116 C58.384481,66.3317116 61.7259232,64.2203095 63.4792913,61.0978044 L63.4792913,71.9673153 Z" id="Path" fill="#50B0D6"></path>
                    <path d="M63.4792913,67.5212075 C61.0173404,69.4486028 57.9166667,70.5969311 54.5477795,70.5969311 C46.5375499,70.5969311 40.0436628,64.1030438 40.0436628,56.0928144 C40.0436628,48.081961 46.5375499,41.5880738 54.5477795,41.5880738 C57.9172904,41.5880738 61.0173404,42.7370259 63.4792913,44.6637974 L63.4792913,51.0878244 C61.7259232,47.9653193 58.384481,45.8539171 54.5477795,45.8539171 C48.893463,45.8539171 44.3095059,50.4378743 44.3095059,56.0928144 C44.3095059,61.7471307 48.893463,66.3317116 54.5477795,66.3317116 C58.384481,66.3317116 61.7259232,64.2203095 63.4792913,61.0971807 L63.4792913,67.5212075 Z" id="Path" fill="#006CBC"></path>
                    <path d="M63.4792913,44.6831337 L63.4792913,51.1090319 C61.7396457,48.0202095 58.4437375,45.9081836 54.6968562,45.8545408 C53.6620509,45.8401947 52.6615519,45.9792913 51.7171906,46.2512476 C50.3468064,46.6454592 48.9782933,45.6337325 48.9782933,44.2078343 L48.9782933,44.2072105 C48.9782933,43.2553643 49.6089071,42.4189123 50.5233284,42.1550649 C52.0446608,41.7159432 53.6676647,41.5188374 55.3499251,41.6099051 C58.4025699,41.7745758 61.2100798,42.8998253 63.4792913,44.6831337 L63.4792913,44.6831337 Z M54.5477795,66.3317116 C53.5560129,66.3317116 52.5966817,66.189496 51.6897455,65.9256487 C50.3318363,65.5308134 48.9782933,66.5637475 48.9782933,67.9777945 C48.9782933,68.9277694 49.6057884,69.7648453 50.5189621,70.0286927 C51.7976546,70.3985779 53.14995,70.5969311 54.5484032,70.5969311 C57.9172904,70.5969311 61.0173404,69.4479791 63.4799152,67.5205838 L63.4799152,61.0978044 C61.7259232,64.2203095 58.384481,66.3317116 54.5477795,66.3317116 L54.5477795,66.3317116 Z" id="Shape" fill="#0088CC"></path>
                    <path d="M35.0848303,37.3696358 L21.7040918,37.3696358 C21.3435628,37.3696358 21.0510229,37.0777196 21.0510229,36.7171906 L21.0510229,34.7586077 C21.0510229,34.3980789 21.3435628,34.1061627 21.7040918,34.1061627 L35.0848303,34.1061627 C35.4453592,34.1061627 35.7378992,34.3980789 35.7378992,34.7586077 L35.7378992,36.7171906 C35.7378992,37.0777196 35.4453592,37.3696358 35.0848303,37.3696358 Z M32.4744262,43.2447604 L32.4744262,41.2861777 C32.4744262,40.9256487 32.1818861,40.6337325 31.8213573,40.6337325 L21.7040918,40.6337325 C21.3435628,40.6337325 21.0510229,40.9256487 21.0510229,41.2861777 L21.0510229,43.2447604 C21.0510229,43.6046657 21.3435628,43.8972056 21.7040918,43.8972056 L31.8213573,43.8972056 C32.1818861,43.8972056 32.4744262,43.6046657 32.4744262,43.2447604 Z M32.4744262,77.5137226 L32.4744262,75.5551396 C32.4744262,75.1946108 32.1818861,74.9026946 31.8213573,74.9026946 L21.7040918,74.9026946 C21.3435628,74.9026946 21.0510229,75.1946108 21.0510229,75.5551396 L21.0510229,77.5137226 C21.0510229,77.8742515 21.3435628,78.1661677 21.7040918,78.1661677 L31.8213573,78.1661677 C32.1818861,78.1661677 32.4744262,77.8742515 32.4744262,77.5137226 Z M24.314496,70.0068613 C24.314496,69.105539 23.5840818,68.3751248 22.6827594,68.3751248 C21.7814371,68.3751248 21.0510229,69.105539 21.0510229,70.0068613 C21.0510229,70.9081836 21.7814371,71.6392216 22.6827594,71.6392216 C23.5840818,71.6392216 24.314496,70.9081836 24.314496,70.0068613 Z M24.314496,65.1116517 C24.314496,64.2103294 23.5840818,63.4792913 22.6827594,63.4792913 C21.7814371,63.4792913 21.0510229,64.2103294 21.0510229,65.1116517 C21.0510229,66.0129741 21.7814371,66.7433883 22.6827594,66.7433883 C23.5840818,66.7433883 24.314496,66.0129741 24.314496,65.1116517 Z M24.314496,60.2158183 C24.314496,59.314496 23.5840818,58.5840818 22.6827594,58.5840818 C21.7814371,58.5840818 21.0510229,59.314496 21.0510229,60.2158183 C21.0510229,61.1171408 21.7814371,61.8475548 22.6827594,61.8475548 C23.5840818,61.8475548 24.314496,61.1171408 24.314496,60.2158183 Z" id="Shape" fill="#7ED4F2"></path>
                    <path d="M63.4792913,30.0261975 L17.7875499,30.0261975 L17.7875499,22.1931138 C17.7875499,20.8414421 18.883483,19.745509 20.2351547,19.745509 L61.0316867,19.745509 C62.3833582,19.745509 63.4792913,20.8414421 63.4792913,22.1931138 L63.4792913,30.0261975 Z" id="Path" fill="#FF393A"></path>
                    <path d="M63.4792913,30.0261975 L23.3358283,30.0261975 L23.3358283,22.1931138 C23.3358283,20.8414421 24.4317614,19.745509 25.7834331,19.745509 L61.0316867,19.745509 C62.3833582,19.745509 63.4792913,20.8414421 63.4792913,22.1931138 L63.4792913,30.0261975 Z" id="Path" fill="#FF6466"></path>
                    <path d="M41.1227545,27.5785929 L38.8385728,27.5785929 C36.7652196,27.5785929 35.0848303,25.8982036 35.0848303,23.825474 L35.0848303,13.3813622 C35.0848303,11.3086327 36.7652196,9.62824351 38.8385728,9.62824351 L41.1227545,9.62824351 C43.1961078,9.62824351 44.8764969,11.3086327 44.8764969,13.3813622 L44.8764969,23.825474 C44.8764969,25.8982036 43.1961078,27.5785929 41.1227545,27.5785929 Z" id="Path" fill="#97F0F2"></path>
                    <path d="M44.8764969,13.3813622 L44.8764969,23.825474 C44.8764969,25.617515 43.6190119,27.1157685 41.9392465,27.4887725 C40.2588573,27.1157685 39.0013723,25.6181388 39.0013723,23.825474 L39.0013723,13.3813622 C39.0013723,11.5886976 40.2588573,10.0904441 41.9392465,9.71806387 C43.6190119,10.0904441 44.8764969,11.5886976 44.8764969,13.3813622 L44.8764969,13.3813622 Z" id="Path" fill="#C0FBFF"></path>
                    <path d="M43.2447604,21.0510229 C43.2447604,22.8536677 41.7833084,24.314496 39.9806636,24.314496 C38.178019,24.314496 36.7171906,22.8536677 36.7171906,21.0510229 C36.7171906,19.2483783 38.178019,17.7875499 39.9806636,17.7875499 C41.7833084,17.7875499 43.2447604,19.2483783 43.2447604,21.0510229 Z" id="Path" fill="#50B0D6"></path>
                    <path d="M43.2447604,21.0510229 C43.2447604,21.3260979 43.2067115,21.5918164 43.1424651,21.8469311 C42.8873503,21.9105539 42.6216318,21.9486028 42.3471807,21.9486028 C40.5445359,21.9486028 39.0830838,20.4871507 39.0830838,18.6851297 C39.0830838,18.4094311 39.1211328,18.1443363 39.1847554,17.8892216 C39.4398703,17.824975 39.7055888,17.7875499 39.9806636,17.7875499 C41.7833084,17.7875499 43.2447604,19.2483783 43.2447604,21.0510229 L43.2447604,21.0510229 Z" id="Path" fill="#7ED4F2"></path>
                </g>
            </g>
        </g>
    </g>
</svg>